


EVENT   1
 PAGE   1
  0()



EVENT   2
 PAGE   1
  0()
 PAGE   2
  // condition: switch 31 is ON
  0()
 PAGE   3
  // condition: switch 32 is ON
  0()



EVENT   3
 PAGE   1
  0()



EVENT   4
 PAGE   1
  0()



EVENT   5
 PAGE   1
  ShowMessageFace("sirousagi_fc1",0,0,2,1)
  ShowMessage("\\n<White Rabbit>ちょうど、実験が始まるところだね。")
  ShowMessage("一応言っておくけど、ボク達に危険はないよ。")
  ShowMessageFace("sirousagi_fc1",0,0,2,2)
  ShowMessage("\\n<White Rabbit>こちらからは干渉されないし、こちらからも干渉できない。")
  ShowMessage("これは、あくまで過去の断片に過ぎないんだからね。")
  ShowMessageFace("sirousagi_fc1",0,0,2,3)
  ShowMessage("\\n<White Rabbit>だからこそ、安全な特等席で見物できるってわけさ。")
  ShowMessage("目の前にいる、可哀想な科学者達とは違ってね……")
  ShowMessageFace("ruka_fc1",0,0,2,4)
  ShowMessage("\\n<Luka>……………………")
  205(-1,bytes(0x04,0x08,0x6f,0x3a,0x13,0x52,0x50,0x47,0x3a,0x3a,0x4d,0x6f,0x76,0x65,0x52,0x6f,0x75,0x74,0x65,0x09,0x3a,0x0c,0x40,0x72,0x65,0x70,0x65,0x61,0x74,0x46,0x3a,0x0f,0x40,0x73,0x6b,0x69,0x70,0x70,0x61,0x62,0x6c,0x65,0x46,0x3a,0x0a,0x40,0x77,0x61,0x69,0x74,0x54,0x3a,0x0a,0x40,0x6c,0x69,0x73,0x74,0x5b,0x0c,0x6f,0x3a,0x15,0x52,0x50,0x47,0x3a,0x3a,0x4d,0x6f,0x76,0x65,0x43,0x6f,0x6d,0x6d,0x61,0x6e,0x64,0x07,0x3a,0x0a,0x40,0x63,0x6f,0x64,0x65,0x69,0x09,0x3a,0x10,0x40,0x70,0x61,0x72,0x61,0x6d,0x65,0x74,0x65,0x72,0x73,0x5b,0x00,0x6f,0x3b,0x0a,0x07,0x3b,0x0b,0x69,0x09,0x3b,0x0c,0x5b,0x00,0x6f,0x3b,0x0a,0x07,0x3b,0x0b,0x69,0x09,0x3b,0x0c,0x5b,0x00,0x6f,0x3b,0x0a,0x07,0x3b,0x0b,0x69,0x09,0x3b,0x0c,0x5b,0x00,0x6f,0x3b,0x0a,0x07,0x3b,0x0b,0x69,0x09,0x3b,0x0c,0x5b,0x00,0x6f,0x3b,0x0a,0x07,0x3b,0x0b,0x69,0x09,0x3b,0x0c,0x5b,0x00,0x6f,0x3b,0x0a,0x07,0x3b,0x0b,0x69,0x00,0x3b,0x0c,0x5b,0x00))
  217()
  241(bytes(0x04,0x08,0x6f,0x3a,0x0d,0x52,0x50,0x47,0x3a,0x3a,0x42,0x47,0x4d,0x08,0x3a,0x0a,0x40,0x6e,0x61,0x6d,0x65,0x49,0x22,0x0a,0x6b,0x69,0x6b,0x69,0x32,0x06,0x3a,0x06,0x45,0x54,0x3a,0x0c,0x40,0x76,0x6f,0x6c,0x75,0x6d,0x65,0x69,0x69,0x3a,0x0b,0x40,0x70,0x69,0x74,0x63,0x68,0x69,0x69))
  ShowMessageFace("",0,0,2,5)
  ShowMessage("\\n<助手>カウントダウン、開始します。")
  ShowMessage("五、四、三……")
  ShowMessageFace("",0,0,2,6)
  ShowMessage("\\n<博士Ａ>……………………")
  ShowMessageFace("",0,0,2,7)
  ShowMessage("\\n<博士Ｂ>頼む、頼むぞ……")
  ShowMessageFace("",0,0,2,8)
  ShowMessage("\\n<助手>二、一、……ゼロ！")
  250(bytes(0x04,0x08,0x6f,0x3a,0x0c,0x52,0x50,0x47,0x3a,0x3a,0x53,0x45,0x08,0x3a,0x0a,0x40,0x6e,0x61,0x6d,0x65,0x49,0x22,0x0f,0x6d,0x6f,0x6e,0x5f,0x65,0x61,0x72,0x74,0x68,0x31,0x06,0x3a,0x06,0x45,0x54,0x3a,0x0b,0x40,0x70,0x69,0x74,0x63,0x68,0x69,0x69,0x3a,0x0c,0x40,0x76,0x6f,0x6c,0x75,0x6d,0x65,0x69,0x69))
  225(7,7,120,true)
  ShowMessageFace("",0,0,2,9)
  ShowMessage("\\n<博士Ａ>エネルギ検出……カウンター値、2400Czを超過！")
  ShowMessage("すごい、すごいぞ……！")
  ShowMessageFace("",0,0,2,10)
  ShowMessage("\\n<博士Ｂ>成功だ！　オーウェル、召喚装置のエネルギ充填率は！？")
  ShowMessageFace("",0,0,2,11)
  ShowMessage("\\n<助手>充填率、十分です！")
  ShowMessage("召喚術式、起動開始……！")
  212(2,542,false)
  ShowMessageFace("",0,0,2,12)
  ShowMessage("\\n<助手>召喚ゲート発生しました！")
  ShowMessage("エネルギ体検知、対象Hによるものと――")
  250(bytes(0x04,0x08,0x6f,0x3a,0x0c,0x52,0x50,0x47,0x3a,0x3a,0x53,0x45,0x08,0x3a,0x0a,0x40,0x6e,0x61,0x6d,0x65,0x49,0x22,0x0f,0x6d,0x6f,0x6e,0x5f,0x65,0x61,0x72,0x74,0x68,0x31,0x06,0x3a,0x06,0x45,0x54,0x3a,0x0b,0x40,0x70,0x69,0x74,0x63,0x68,0x69,0x69,0x3a,0x0c,0x40,0x76,0x6f,0x6c,0x75,0x6d,0x65,0x69,0x69))
  225(7,7,120,true)
  241(bytes(0x04,0x08,0x6f,0x3a,0x0d,0x52,0x50,0x47,0x3a,0x3a,0x42,0x47,0x4d,0x08,0x3a,0x0a,0x40,0x6e,0x61,0x6d,0x65,0x49,0x22,0x0a,0x6b,0x69,0x6b,0x69,0x32,0x06,0x3a,0x06,0x45,0x54,0x3a,0x0c,0x40,0x76,0x6f,0x6c,0x75,0x6d,0x65,0x69,0x69,0x3a,0x0b,0x40,0x70,0x69,0x74,0x63,0x68,0x69,0x69))
  ShowMessageFace("",0,0,2,13)
  ShowMessage("\\n<博士Ａ>ちょっと待て、コンソールの数値が変だ。")
  ShowMessage("マナのＣｚ値が、ゼロまで下がって……")
  ShowMessageFace("",0,0,2,14)
  ShowMessage("\\n<博士Ｂ>どうなってる、マイナスにまで下がったぞ！")
  ShowMessage("なんなんだ、機材の故障か！？")
  250(bytes(0x04,0x08,0x6f,0x3a,0x0c,0x52,0x50,0x47,0x3a,0x3a,0x53,0x45,0x08,0x3a,0x0a,0x40,0x6e,0x61,0x6d,0x65,0x49,0x22,0x0f,0x6d,0x6f,0x6e,0x5f,0x65,0x61,0x72,0x74,0x68,0x31,0x06,0x3a,0x06,0x45,0x54,0x3a,0x0b,0x40,0x70,0x69,0x74,0x63,0x68,0x69,0x69,0x3a,0x0c,0x40,0x76,0x6f,0x6c,0x75,0x6d,0x65,0x69,0x69))
  225(7,7,120,true)
  ShowMessageFace("",0,0,2,15)
  ShowMessage("\\n<助手>対象Ｈのエネルギは接近中……")
  ShowMessage("……え？　どうなってる、これ……質量を検出！")
  ShowMessageFace("",0,0,2,16)
  ShowMessage("\\n<助手>ゲートが閉じません、向こうからこじ開けられて――")
  ShowMessageFace("",0,0,2,17)
  ShowMessage("\\n<博士Ａ>質量！？　霊体ではなく実体だと！？")
  ShowMessage("実験は中止だ！　ゲートを破棄、対象Ｈを押し戻せ！！")
  250(bytes(0x04,0x08,0x6f,0x3a,0x0c,0x52,0x50,0x47,0x3a,0x3a,0x53,0x45,0x08,0x3a,0x0a,0x40,0x6e,0x61,0x6d,0x65,0x49,0x22,0x0f,0x6d,0x6f,0x6e,0x5f,0x65,0x61,0x72,0x74,0x68,0x31,0x06,0x3a,0x06,0x45,0x54,0x3a,0x0b,0x40,0x70,0x69,0x74,0x63,0x68,0x69,0x69,0x3a,0x0c,0x40,0x76,0x6f,0x6c,0x75,0x6d,0x65,0x69,0x69))
  225(7,7,120,true)
  ShowMessageFace("",0,0,2,18)
  ShowMessage("\\n<助手>……これ、対象Ｈじゃ……ハインリヒの霊体じゃありません！")
  ShowMessage("いったい、何が――")
  ShowMessageFace("",0,0,2,19)
  ShowMessage("\\n<博士Ｂ>どうなってる！？　何を召喚してしまったんだ！！")
  205(1,bytes(0x04,0x08,0x6f,0x3a,0x13,0x52,0x50,0x47,0x3a,0x3a,0x4d,0x6f,0x76,0x65,0x52,0x6f,0x75,0x74,0x65,0x09,0x3a,0x0c,0x40,0x72,0x65,0x70,0x65,0x61,0x74,0x46,0x3a,0x0f,0x40,0x73,0x6b,0x69,0x70,0x70,0x61,0x62,0x6c,0x65,0x46,0x3a,0x0a,0x40,0x77,0x61,0x69,0x74,0x46,0x3a,0x0a,0x40,0x6c,0x69,0x73,0x74,0x5b,0x07,0x6f,0x3a,0x15,0x52,0x50,0x47,0x3a,0x3a,0x4d,0x6f,0x76,0x65,0x43,0x6f,0x6d,0x6d,0x61,0x6e,0x64,0x07,0x3a,0x0a,0x40,0x63,0x6f,0x64,0x65,0x69,0x16,0x3a,0x10,0x40,0x70,0x61,0x72,0x61,0x6d,0x65,0x74,0x65,0x72,0x73,0x5b,0x00,0x6f,0x3b,0x0a,0x07,0x3b,0x0b,0x69,0x00,0x3b,0x0c,0x5b,0x00))
  205(3,bytes(0x04,0x08,0x6f,0x3a,0x13,0x52,0x50,0x47,0x3a,0x3a,0x4d,0x6f,0x76,0x65,0x52,0x6f,0x75,0x74,0x65,0x09,0x3a,0x0c,0x40,0x72,0x65,0x70,0x65,0x61,0x74,0x46,0x3a,0x0f,0x40,0x73,0x6b,0x69,0x70,0x70,0x61,0x62,0x6c,0x65,0x46,0x3a,0x0a,0x40,0x77,0x61,0x69,0x74,0x46,0x3a,0x0a,0x40,0x6c,0x69,0x73,0x74,0x5b,0x07,0x6f,0x3a,0x15,0x52,0x50,0x47,0x3a,0x3a,0x4d,0x6f,0x76,0x65,0x43,0x6f,0x6d,0x6d,0x61,0x6e,0x64,0x07,0x3a,0x0a,0x40,0x63,0x6f,0x64,0x65,0x69,0x16,0x3a,0x10,0x40,0x70,0x61,0x72,0x61,0x6d,0x65,0x74,0x65,0x72,0x73,0x5b,0x00,0x6f,0x3b,0x0a,0x07,0x3b,0x0b,0x69,0x00,0x3b,0x0c,0x5b,0x00))
  205(10,bytes(0x04,0x08,0x6f,0x3a,0x13,0x52,0x50,0x47,0x3a,0x3a,0x4d,0x6f,0x76,0x65,0x52,0x6f,0x75,0x74,0x65,0x09,0x3a,0x0c,0x40,0x72,0x65,0x70,0x65,0x61,0x74,0x46,0x3a,0x0f,0x40,0x73,0x6b,0x69,0x70,0x70,0x61,0x62,0x6c,0x65,0x46,0x3a,0x0a,0x40,0x77,0x61,0x69,0x74,0x46,0x3a,0x0a,0x40,0x6c,0x69,0x73,0x74,0x5b,0x07,0x6f,0x3a,0x15,0x52,0x50,0x47,0x3a,0x3a,0x4d,0x6f,0x76,0x65,0x43,0x6f,0x6d,0x6d,0x61,0x6e,0x64,0x07,0x3a,0x0a,0x40,0x63,0x6f,0x64,0x65,0x69,0x16,0x3a,0x10,0x40,0x70,0x61,0x72,0x61,0x6d,0x65,0x74,0x65,0x72,0x73,0x5b,0x00,0x6f,0x3b,0x0a,0x07,0x3b,0x0b,0x69,0x00,0x3b,0x0c,0x5b,0x00))
  205(6,bytes(0x04,0x08,0x6f,0x3a,0x13,0x52,0x50,0x47,0x3a,0x3a,0x4d,0x6f,0x76,0x65,0x52,0x6f,0x75,0x74,0x65,0x09,0x3a,0x0c,0x40,0x72,0x65,0x70,0x65,0x61,0x74,0x46,0x3a,0x0f,0x40,0x73,0x6b,0x69,0x70,0x70,0x61,0x62,0x6c,0x65,0x46,0x3a,0x0a,0x40,0x77,0x61,0x69,0x74,0x46,0x3a,0x0a,0x40,0x6c,0x69,0x73,0x74,0x5b,0x07,0x6f,0x3a,0x15,0x52,0x50,0x47,0x3a,0x3a,0x4d,0x6f,0x76,0x65,0x43,0x6f,0x6d,0x6d,0x61,0x6e,0x64,0x07,0x3a,0x0a,0x40,0x63,0x6f,0x64,0x65,0x69,0x17,0x3a,0x10,0x40,0x70,0x61,0x72,0x61,0x6d,0x65,0x74,0x65,0x72,0x73,0x5b,0x00,0x6f,0x3b,0x0a,0x07,0x3b,0x0b,0x69,0x00,0x3b,0x0c,0x5b,0x00))
  205(7,bytes(0x04,0x08,0x6f,0x3a,0x13,0x52,0x50,0x47,0x3a,0x3a,0x4d,0x6f,0x76,0x65,0x52,0x6f,0x75,0x74,0x65,0x09,0x3a,0x0c,0x40,0x72,0x65,0x70,0x65,0x61,0x74,0x46,0x3a,0x0f,0x40,0x73,0x6b,0x69,0x70,0x70,0x61,0x62,0x6c,0x65,0x46,0x3a,0x0a,0x40,0x77,0x61,0x69,0x74,0x46,0x3a,0x0a,0x40,0x6c,0x69,0x73,0x74,0x5b,0x07,0x6f,0x3a,0x15,0x52,0x50,0x47,0x3a,0x3a,0x4d,0x6f,0x76,0x65,0x43,0x6f,0x6d,0x6d,0x61,0x6e,0x64,0x07,0x3a,0x0a,0x40,0x63,0x6f,0x64,0x65,0x69,0x17,0x3a,0x10,0x40,0x70,0x61,0x72,0x61,0x6d,0x65,0x74,0x65,0x72,0x73,0x5b,0x00,0x6f,0x3b,0x0a,0x07,0x3b,0x0b,0x69,0x00,0x3b,0x0c,0x5b,0x00))
  205(8,bytes(0x04,0x08,0x6f,0x3a,0x13,0x52,0x50,0x47,0x3a,0x3a,0x4d,0x6f,0x76,0x65,0x52,0x6f,0x75,0x74,0x65,0x09,0x3a,0x0c,0x40,0x72,0x65,0x70,0x65,0x61,0x74,0x46,0x3a,0x0f,0x40,0x73,0x6b,0x69,0x70,0x70,0x61,0x62,0x6c,0x65,0x46,0x3a,0x0a,0x40,0x77,0x61,0x69,0x74,0x46,0x3a,0x0a,0x40,0x6c,0x69,0x73,0x74,0x5b,0x07,0x6f,0x3a,0x15,0x52,0x50,0x47,0x3a,0x3a,0x4d,0x6f,0x76,0x65,0x43,0x6f,0x6d,0x6d,0x61,0x6e,0x64,0x07,0x3a,0x0a,0x40,0x63,0x6f,0x64,0x65,0x69,0x17,0x3a,0x10,0x40,0x70,0x61,0x72,0x61,0x6d,0x65,0x74,0x65,0x72,0x73,0x5b,0x00,0x6f,0x3b,0x0a,0x07,0x3b,0x0b,0x69,0x00,0x3b,0x0c,0x5b,0x00))
  205(9,bytes(0x04,0x08,0x6f,0x3a,0x13,0x52,0x50,0x47,0x3a,0x3a,0x4d,0x6f,0x76,0x65,0x52,0x6f,0x75,0x74,0x65,0x09,0x3a,0x0c,0x40,0x72,0x65,0x70,0x65,0x61,0x74,0x46,0x3a,0x0f,0x40,0x73,0x6b,0x69,0x70,0x70,0x61,0x62,0x6c,0x65,0x46,0x3a,0x0a,0x40,0x77,0x61,0x69,0x74,0x46,0x3a,0x0a,0x40,0x6c,0x69,0x73,0x74,0x5b,0x07,0x6f,0x3a,0x15,0x52,0x50,0x47,0x3a,0x3a,0x4d,0x6f,0x76,0x65,0x43,0x6f,0x6d,0x6d,0x61,0x6e,0x64,0x07,0x3a,0x0a,0x40,0x63,0x6f,0x64,0x65,0x69,0x15,0x3a,0x10,0x40,0x70,0x61,0x72,0x61,0x6d,0x65,0x74,0x65,0x72,0x73,0x5b,0x00,0x6f,0x3b,0x0a,0x07,0x3b,0x0b,0x69,0x00,0x3b,0x0c,0x5b,0x00))
  212(7,547,false)
  Wait(60)
  ChangeSwitch(31,31,0)
  242(1)
  Wait(120)
  PictureDisplay(5,"80_alice8th4_st02",0,0,0,0,100,100,0,0)
  PictureMove(5,null,0,0,0,0,100,100,255,0,60,true)
  ShowMessageFace("alice8th_fc2",4,0,2,20)
  ShowMessage("\\n<黒のアリス>……………………")
  241(bytes(0x04,0x08,0x6f,0x3a,0x0d,0x52,0x50,0x47,0x3a,0x3a,0x42,0x47,0x4d,0x08,0x3a,0x0a,0x40,0x6e,0x61,0x6d,0x65,0x49,0x22,0x12,0x64,0x75,0x6e,0x67,0x65,0x6f,0x6e,0x5f,0x6c,0x61,0x62,0x6f,0x33,0x06,0x3a,0x06,0x45,0x54,0x3a,0x0c,0x40,0x76,0x6f,0x6c,0x75,0x6d,0x65,0x69,0x69,0x3a,0x0b,0x40,0x70,0x69,0x74,0x63,0x68,0x69,0x69))
  ShowMessageFace("alice8th_fc2",4,0,2,21)
  ShowMessage("\\n<黒のアリス>ここは……？")
  ShowMessageFace("alice8th_fc2",4,0,2,22)
  ShowMessage("\\n<黒のアリス>私は、イリアスを食らい……")
  ShowMessage("そして、聖なる力を……この身に……")
  ShowMessageFace("alice8th_fc2",4,0,2,23)
  ShowMessage("\\n<黒のアリス>しかし、私は勇者に敗れ……")
  ShowMessage("命尽きる、その瞬間……")
  Wait(30)
  ShowMessageFace("sirousagi_fc1",0,0,2,24)
  ShowMessage("\\n<White Rabbit>……召喚されたのは、勇者ハインリヒじゃなかった。")
  ShowMessage("剣に付着していた、黒のアリスの血液が反応したんだ……")
  ShowMessageFace("sirousagi_fc1",0,0,2,25)
  ShowMessage("\\n<White Rabbit>しかも、呼んじゃったのは五百年前の黒のアリスじゃない……")
  ShowMessage("この時代より三十年後の、未来にあたる黒のアリスが召喚されたんだ。")
  If(0,4,0)
   ShowMessageFace("alice_fc6",0,0,2,26)
   ShowMessage("\\n<Alice>黒のアリスだと？")
   ShowMessage("だが、この禍々しい力は……")
   0()
  EndIf()
  If(0,5,0)
   ShowMessageFace("iriasu_fc4",5,0,2,27)
   ShowMessage("\\n<Ilias>馬鹿な、あれが黒のアリスなどと……")
   ShowMessage("信じられない、聖なる力までを持ち合わせて……")
   0()
  EndIf()
  ShowMessageFace("sirousagi_fc1",0,0,2,28)
  ShowMessage("\\n<White Rabbit>黒のアリスは、勇者ルカに倒される前……")
  ShowMessage("その身に、女神イリアスを吸収したんだ。")
  ShowMessageFace("sirousagi_fc1",0,0,2,29)
  ShowMessage("\\n<White Rabbit>でも、聖魔融合の力を完全に使いこなしたとは全然言えなかった。")
  ShowMessage("そして直後の勇者ルカとの戦いで敗北し、滅び去った――")
  ShowMessageFace("sirousagi_fc1",0,0,2,30)
  ShowMessage("\\n<White Rabbit>――それが、正史の成り行きだったんだよ。")
  ShowMessage("でも、その因果律は破られた。")
  Wait(30)
  ShowMessageFace("alice8th_fc2",4,0,2,31)
  ShowMessage("\\n<黒のアリス>今、ようやく……")
  ShowMessage("私の中で、聖と闇が混じり合って……")
  ShowMessageFace("alice8th_fc2",4,0,2,32)
  ShowMessage("\\n<黒のアリス>違う……これは、混沌の力……")
  ShowMessage("時間も空間もない時代、原初に存在した力……")
  ShowMessageFace("alice8th_fc2",4,0,2,33)
  ShowMessage("\\n<黒のアリス>原初の昔、そこに混沌があった……")
  ShowMessage("混沌は光と闇に分かれ……")
  ShowMessageFace("alice8th_fc2",4,0,2,34)
  ShowMessage("\\n<黒のアリス>光からは女神が……闇からは邪神が……")
  ShowMessage("それぞれ神性が生まれ……両者は力を分かち……")
  ShowMessageFace("alice8th_fc2",4,0,2,35)
  ShowMessage("\\n<黒のアリス>だが、私は……本来あるべき力を……")
  ShowMessage("ふ、ふふふっ……")
  ShowMessageFace("alice8th_fc2",4,0,2,36)
  ShowMessage("\\n<黒のアリス>うふふふふっ……")
  ShowMessageFace("alice8th_fc2",4,0,2,37)
  ShowMessage("\\n<黒のアリス>ふふふっ……あははははは……")
  ChangeSwitch(32,32,0)
  241(bytes(0x04,0x08,0x6f,0x3a,0x0d,0x52,0x50,0x47,0x3a,0x3a,0x42,0x47,0x4d,0x08,0x3a,0x0a,0x40,0x6e,0x61,0x6d,0x65,0x49,0x22,0x11,0x73,0x63,0x65,0x6e,0x65,0x5f,0x63,0x68,0x61,0x6f,0x73,0x31,0x06,0x3a,0x06,0x45,0x54,0x3a,0x0c,0x40,0x76,0x6f,0x6c,0x75,0x6d,0x65,0x69,0x69,0x3a,0x0b,0x40,0x70,0x69,0x74,0x63,0x68,0x69,0x69))
  250(bytes(0x04,0x08,0x6f,0x3a,0x0c,0x52,0x50,0x47,0x3a,0x3a,0x53,0x45,0x08,0x3a,0x0a,0x40,0x6e,0x61,0x6d,0x65,0x49,0x22,0x0e,0x44,0x61,0x72,0x6b,0x6e,0x65,0x73,0x73,0x31,0x06,0x3a,0x06,0x45,0x54,0x3a,0x0b,0x40,0x70,0x69,0x74,0x63,0x68,0x69,0x69,0x3a,0x0c,0x40,0x76,0x6f,0x6c,0x75,0x6d,0x65,0x69,0x55))
  PictureDisplay(10,"sys_noise",0,0,0,0,100,100,0,0)
  PictureMove(10,null,0,0,0,0,100,100,255,0,30,true)
  PictureDisplay(5,"80_alice8th6_st05",0,0,0,0,100,100,255,0)
  PictureMove(10,null,0,0,0,0,100,100,0,0,30,true)
  PictureClear(10)
  ShowMessageFace("alice8th_fc4",4,0,2,38)
  ShowMessage("\\n<黒のアリス>あはははははは■ははは■ははははは■■は■■")
  ShowMessage("■は■■■は■■■■■■■■■■■！！！！！")
  PictureClear(5)
  250(bytes(0x04,0x08,0x6f,0x3a,0x0c,0x52,0x50,0x47,0x3a,0x3a,0x53,0x45,0x08,0x3a,0x0a,0x40,0x6e,0x61,0x6d,0x65,0x49,0x22,0x0d,0x6d,0x6f,0x6e,0x5f,0x62,0x6f,0x6d,0x31,0x06,0x3a,0x06,0x45,0x54,0x3a,0x0b,0x40,0x70,0x69,0x74,0x63,0x68,0x69,0x69,0x3a,0x0c,0x40,0x76,0x6f,0x6c,0x75,0x6d,0x65,0x69,0x69))
  225(7,7,180,false)
  PictureDisplay(10,"sys_noise",0,0,0,0,100,100,0,0)
  PictureMove(10,null,0,0,0,0,100,100,255,0,60,true)
  211(0)
  TeleportPlayer(0,726,12,17,8,2)
  PictureMove(10,null,0,0,0,0,100,100,0,0,60,true)
  PictureClear(10)
  ShowMessageFace("alice8th_fc4",4,0,2,39)
  ShowMessage("\\n<黒のアリス>■■■■■■■■■■■■■■■■■■■■■■")
  ShowMessage("■■■■■■■■■■■■■■■■■■■！！！")
  Wait(30)
  ShowMessageFace("sirousagi_fc1",0,0,2,40)
  ShowMessage("\\n<White Rabbit>――そして、第三の神が生まれた。")
  250(bytes(0x04,0x08,0x6f,0x3a,0x0c,0x52,0x50,0x47,0x3a,0x3a,0x53,0x45,0x08,0x3a,0x0a,0x40,0x6e,0x61,0x6d,0x65,0x49,0x22,0x0e,0x44,0x61,0x72,0x6b,0x6e,0x65,0x73,0x73,0x31,0x06,0x3a,0x06,0x45,0x54,0x3a,0x0b,0x40,0x70,0x69,0x74,0x63,0x68,0x69,0x69,0x3a,0x0c,0x40,0x76,0x6f,0x6c,0x75,0x6d,0x65,0x69,0x55))
  ChangeSwitch(33,33,0)
  ShowMessageFace("",0,0,2,41)
  ShowMessage("\\n<博士Ａ>うわぁっ！　なんだ、このバケモノは……！")
  ShowMessageFace("",0,0,2,42)
  ShowMessage("\\n<博士Ｂ>ひぁぁ……私の体がぁ……")
  ShowMessage("か、壁と一体化して……")
  ShowMessageFace("",0,0,2,43)
  ShowMessage("\\n<助手>ぼ、ぼく生きてるんですかァ？")
  ShowMessage("胴体がなくな■たのに、なん■■んなに生■■■■■■■■■■■えああ！！")
  PictureDisplay(5,"iv_catas1",0,0,0,0,100,100,0,0)
  PictureMove(5,null,0,0,0,0,100,100,255,0,30,true)
  ShowMessageFace("",0,0,2,44)
  ShowMessage("\\n<博士Ａ>たす■■■■■■■■■■■■■■■■■■■■■■■■■")
  ShowMessage("■■■■■■■■■■■■■■■■■■■■■■■■■■■")
  ShowMessage("■■■■■■■■■■■■■■■■■■■■■■■■■■■")
  ShowMessageFace("",0,0,2,45)
  ShowMessage("\\n<博士Ｂ>あ■■■■■■■■■■■■■■■■■■■■■■■■■■")
  ShowMessage("■■■■■■■■■■■■■■■■■■■■■■■■■■■")
  ShowMessage("■■■■■■■■■■■■■■■■■■■■■■■■■■■")
  ShowMessageFace("",0,0,2,46)
  ShowMessage("\\n<助手>■■■■■■■■■■■■■■■■■■■■■■■■■■■")
  ShowMessage("■■■■■■■■■■■■■■■■■■■■■■■■■■■")
  ShowMessage("■■■■■■■■■■■■■■■■■■■■■■■■■■■")
  PictureDisplay(6,"iv_catas2",0,0,0,0,100,100,0,0)
  PictureMove(6,null,0,0,0,0,100,100,255,0,60,true)
  ShowMessageFace("sirousagi_fc1",0,0,2,47)
  ShowMessage("\\n<White Rabbit>こうしてレミナは、大異変の中心地となった。")
  ShowMessage("カオスに飲み込まれ、タルタロスを形成する断片となった。")
  ShowMessageFace("sirousagi_fc1",0,0,2,48)
  ShowMessage("\\n<White Rabbit>でも、被害はレミナのみにとどまらなかった――")
  PictureDisplay(7,"iv_catas3",0,0,0,0,100,100,0,0)
  PictureMove(7,null,0,0,0,0,100,100,255,0,60,true)
  ShowMessageFace("alice8th_fc4",4,0,2,49)
  ShowMessage("\\n<黒のアリス>■■■■■■■■■■■■■■■■■■■■■■■■■■■")
  ShowMessage("■■■■■■■■■■■■■■■■■■■■■■■■■■■")
  ShowMessage("■■■■■■■■■■■■■■■■■■■■■■■■■■■")
  ShowMessageFace("sirousagi_fc1",0,0,2,50)
  ShowMessage("\\n<White Rabbit>黒のアリスの力は、混沌の奔流を巻き起こす。")
  ShowMessage("溢れ出た混沌が時空に穴を空け、そして世界を引き裂いた。")
  ShowMessageFace("sirousagi_fc1",0,0,2,51)
  ShowMessage("\\n<White Rabbit>天界もその直撃を受け、イリアスは瀕死のダメージを受ける。")
  ShowMessage("正史イリアスの死は確定してたから、その因果律に引きずられたんだ。")
  ShowMessageFace("sirousagi_fc1",0,0,2,52)
  ShowMessage("\\n<White Rabbit>時空は歪み、蝕まれ……そして連鎖的に数々の並行世界が生まれた。")
  ShowMessage("時空間の断裂はタルタロスとなり、世界を繋ぐトンネルとなった……")
  PictureClear(6)
  PictureDisplay(5,"iv_catas4",0,0,0,0,100,100,255,0)
  PictureMove(7,null,0,0,0,0,100,100,0,0,90,true)
  PictureClear(7)
  241(bytes(0x04,0x08,0x6f,0x3a,0x0d,0x52,0x50,0x47,0x3a,0x3a,0x42,0x47,0x4d,0x08,0x3a,0x0a,0x40,0x6e,0x61,0x6d,0x65,0x49,0x22,0x0e,0x6b,0x75,0x72,0x6f,0x61,0x6c,0x69,0x63,0x65,0x06,0x3a,0x06,0x45,0x54,0x3a,0x0c,0x40,0x76,0x6f,0x6c,0x75,0x6d,0x65,0x69,0x69,0x3a,0x0b,0x40,0x70,0x69,0x74,0x63,0x68,0x69,0x69))
  ShowMessageFace("alice8th_fc4",1,0,2,53)
  ShowMessage("\\n<黒のアリス>うふふふふ……")
  Wait(30)
  ShowMessageFace("sirousagi_fc1",0,0,2,54)
  ShowMessage("\\n<White Rabbit>……地上で生まれた第三の神、黒のアリス。")
  ShowMessage("神代の時以来、初めて二神以外の神が誕生したわけだ。")
  Wait(30)
  ShowMessageFace("alice8th_fc4",1,0,2,55)
  ShowMessage("\\n<黒のアリス>この世界は、私の楽しいオモチャ箱。")
  ShowMessage("さあ、どんな遊びをしようかしら……")
  ShowMessageFace("alice8th_fc4",0,0,2,56)
  ShowMessage("\\n<黒のアリス>……あら？　これは……")
  PictureDisplay(6,"iv_6so",0,0,0,0,100,100,0,0)
  PictureMove(6,null,0,0,0,0,100,100,255,0,60,true)
  ShowMessageFace("alice8th_fc4",1,0,2,57)
  ShowMessage("\\n<黒のアリス>感じますわ、闇の世界を……")
  ShowMessage("この世界を欲しがっている、別の者達を……")
  ShowMessageFace("alice8th_fc4",1,0,2,58)
  ShowMessage("\\n<黒のアリス>うふふっ、私の世界にいますわね……")
  ShowMessage("あの世界から来た者が……")
  PictureDisplay(7,"iv_7angel",0,0,0,0,100,100,0,0)
  PictureMove(7,null,0,0,0,0,100,100,255,0,60,true)
  ShowMessageFace("alice8th_fc4",1,0,2,59)
  ShowMessage("\\n<黒のアリス>うふふっ、あっちにも別の者達が……")
  ShowMessage("光の世界から来た者も、私の世界に潜んで……")
  ShowMessageFace("alice8th_fc4",1,0,2,60)
  ShowMessage("\\n<黒のアリス>あなた達も、私の世界が欲しいのですか……？")
  ShowMessage("うふふっ……とっても楽しいパーティになりそう……")
  PictureClear(6)
  PictureMove(7,null,0,0,0,0,100,100,0,0,30,true)
  PictureClear(7)
  ShowMessageFace("alice8th_fc4",0,0,2,61)
  ShowMessage("\\n<黒のアリス>ふふふ……うふふふふっ……")
  242(1)
  Wait(30)
  ShowMessageFace("sirousagi_fc1",0,0,2,62)
  ShowMessage("\\n<White Rabbit>……これが、あの日起きた事の全てさ。")
  ShowMessage("長居は無用、元の時代に――")
  PictureDisplay(6,"80_alice8th6_st01",0,0,0,0,100,100,0,0)
  PictureMove(6,null,0,0,0,0,100,100,255,0,60,false)
  241(bytes(0x04,0x08,0x6f,0x3a,0x0d,0x52,0x50,0x47,0x3a,0x3a,0x42,0x47,0x4d,0x08,0x3a,0x0a,0x40,0x6e,0x61,0x6d,0x65,0x49,0x22,0x0c,0x62,0x6f,0x73,0x73,0x30,0x2d,0x33,0x06,0x3a,0x06,0x45,0x54,0x3a,0x0c,0x40,0x76,0x6f,0x6c,0x75,0x6d,0x65,0x69,0x69,0x3a,0x0b,0x40,0x70,0x69,0x74,0x63,0x68,0x69,0x69))
  ShowMessageFace("alice8th_fc4",0,0,2,63)
  ShowMessage("\\n<黒のアリス>……お待ちなさい、ウサギさん。")
  ShowMessage("それに、時も因果律も超えた旅人達……")
  PictureDisplay(6,"80_alice8th6_st05",0,0,0,0,100,100,255,0)
  ShowMessageFace("alice8th_fc4",4,0,2,64)
  ShowMessage("\\n<黒のアリス>私に挨拶もなく、行ってしまわれるのですか……？")
  ShowMessageFace("ruka_fc1",0,0,2,65)
  ShowMessage("\\n<Luka>まさか、僕達が見えて――")
  ShowMessageFace("sirousagi_fc1",2,0,2,66)
  ShowMessage("\\n<White Rabbit>……まずい、認識された！　戻るよっ！")
  242(1)
  250(bytes(0x04,0x08,0x6f,0x3a,0x0c,0x52,0x50,0x47,0x3a,0x3a,0x53,0x45,0x08,0x3a,0x0a,0x40,0x6e,0x61,0x6d,0x65,0x49,0x22,0x0b,0x4d,0x61,0x67,0x69,0x63,0x37,0x06,0x3a,0x06,0x45,0x54,0x3a,0x0b,0x40,0x70,0x69,0x74,0x63,0x68,0x69,0x69,0x3a,0x0c,0x40,0x76,0x6f,0x6c,0x75,0x6d,0x65,0x69,0x55))
  221()
  PictureClear(5)
  PictureClear(6)
  Wait(120)
  ChangeVariable(1075,1075,0,0,14)
  ChangeSwitch(31,31,1)
  ChangeSwitch(32,32,1)
  ChangeSwitch(33,33,1)
  TeleportPlayer(0,138,32,9,8,2)
  241(bytes(0x04,0x08,0x6f,0x3a,0x0d,0x52,0x50,0x47,0x3a,0x3a,0x42,0x47,0x4d,0x08,0x3a,0x0a,0x40,0x6e,0x61,0x6d,0x65,0x49,0x22,0x0a,0x69,0x72,0x69,0x61,0x73,0x06,0x3a,0x06,0x45,0x54,0x3a,0x0c,0x40,0x76,0x6f,0x6c,0x75,0x6d,0x65,0x69,0x69,0x3a,0x0b,0x40,0x70,0x69,0x74,0x63,0x68,0x69,0x69))
  0()



EVENT   6
 PAGE   1
  0()



EVENT   7
 PAGE   1
  0()



EVENT   8
 PAGE   1
  0()



EVENT   9
 PAGE   1
  0()



EVENT   10
 PAGE   1
  0()



EVENT   11
 PAGE   1
  0()



EVENT   12
 PAGE   1
  0()



EVENT   13
 PAGE   1
  0()



EVENT   14
 PAGE   1
  0()



EVENT   15
 PAGE   1
  0()
