// EVENT 0061
Name "Skill: Play 211-220"

ChangeVariable(11,11,0,2,1,5)
If(1,100,0,211,0)
 If(1,11,0,1,0)
  ShowMessageFace("hakoiri_fc1",0,0,2,1)
  ShowMessage("【ステファニー】")
  ShowMessage("鍵穴、お掃除しないと……")
  ShowMessageFace("",0,0,2,2)
  ShowMessage("ステファニーは鍵穴の部分をケアしている……")
  EndEventProcessing()
  0()
 EndIf()
 If(1,11,0,2,0)
  ShowMessageFace("hakoiri_fc1",3,0,2,3)
  ShowMessage("【ステファニー】")
  ShowMessage("うふふっ……")
  355("interrupt_skill(3296)")
  EndEventProcessing()
  0()
 EndIf()
 If(1,11,0,3,0)
  ShowMessageFace("hakoiri_fc1",4,0,2,4)
  ShowMessage("【ステファニー】")
  ShowMessage("宝箱の中に、私の素敵な宝物……♪")
  ShowMessageFace("",0,0,2,5)
  ShowMessage("ステファニーは宝箱の中を眺めている……")
  EndEventProcessing()
  0()
 EndIf()
 If(1,11,0,4,0)
  ShowMessageFace("hakoiri_fc1",0,0,2,6)
  ShowMessage("【ステファニー】")
  ShowMessage("これ、飲んで下さいね……")
  ShowMessageFace("",0,0,2,7)
  ShowMessage("ステファニーからの差し入れだ！")
  250(bytes(0x04,0x08,0x6f,0x3a,0x0c,0x52,0x50,0x47,0x3a,0x3a,0x53,0x45,0x08,0x3a,0x0a,0x40,0x6e,0x61,0x6d,0x65,0x49,0x22,0x0a,0x49,0x74,0x65,0x6d,0x31,0x06,0x3a,0x06,0x45,0x54,0x3a,0x0b,0x40,0x70,0x69,0x74,0x63,0x68,0x69,0x69,0x3a,0x0c,0x40,0x76,0x6f,0x6c,0x75,0x6d,0x65,0x69,0x55))
  ChangeInventory_Item(342,0,0,1)
  ShowMessageFace("",0,0,2,8)
  ShowMessage("「ミルク」を手に入れた！")
  EndEventProcessing()
  0()
 EndIf()
 If(1,11,0,5,0)
  ShowMessageFace("hakoiri_fc1",0,0,2,9)
  ShowMessage("【ステファニー】")
  ShowMessage("ばよーん！")
  355("interrupt_skill(2969)")
  EndEventProcessing()
  0()
 EndIf()
 0()
EndIf()
If(1,100,0,212,0)
 If(1,11,0,1,0)
  ShowMessageFace("durahan_fc1",0,0,2,10)
  ShowMessage("【アーサー】")
  ShowMessage("ていっ！　はぁっ！")
  ShowMessageFace("",0,0,2,11)
  ShowMessage("は武器を素振りしている……")
  EndEventProcessing()
  0()
 EndIf()
 If(1,11,0,2,0)
  ShowMessageFace("durahan_fc1",0,0,2,12)
  ShowMessage("【アーサー】")
  ShowMessage("ていっ！　はぁっ！")
  355("interrupt_skill(3291)")
  EndEventProcessing()
  0()
 EndIf()
 If(1,11,0,3,0)
  ShowMessageFace("durahan_fc1",0,0,2,13)
  ShowMessage("【アーサー】")
  ShowMessage("首の調子が悪いな……")
  ShowMessageFace("",0,0,2,14)
  ShowMessage("デュラハンは首をぐるぐる回している……")
  EndEventProcessing()
  0()
 EndIf()
 If(1,11,0,4,0)
  ShowMessageFace("durahan_fc1",0,0,2,15)
  ShowMessage("【アーサー】")
  ShowMessage("でやぁっ！")
  ShowMessageFace("",0,0,2,16)
  ShowMessage("アーサーは自分の首を敵に投げつけた！")
  ShowMessage("しかし外れ、首は地面を転がっていった……")
  EndEventProcessing()
  0()
 EndIf()
 If(1,11,0,5,0)
  ShowMessageFace("durahan_fc1",0,0,2,17)
  ShowMessage("【アーサー】")
  ShowMessage("てりゃぁぁぁぁ！！")
  355("interrupt_skill(3292)")
  EndEventProcessing()
  0()
 EndIf()
 0()
EndIf()
If(1,100,0,213,0)
 If(1,11,0,1,0)
  ShowMessageFace("kerberos_fc1",2,0,2,18)
  ShowMessage("【シーザーＡ】")
  ShowMessage("まったく、お前達はいつも……！")
  ShowMessageFace("kerberos_fc1",2,0,2,19)
  ShowMessage("【シーザーＢ】")
  ShowMessage("それはこっちのセリフだ、犬め！")
  ShowMessageFace("",0,0,2,20)
  ShowMessage("シーザーの三つの首は罵り合っている……")
  EndEventProcessing()
  0()
 EndIf()
 If(1,11,0,2,0)
  ShowMessageFace("kerberos_fc1",0,0,2,21)
  ShowMessage("【シーザー】")
  ShowMessage("アオーン！")
  ShowMessageFace("",0,0,2,22)
  ShowMessage("シーザーは遠吠えしている！")
  ShowMessage("しかし、何も起こらなかった……")
  EndEventProcessing()
  0()
 EndIf()
 If(1,11,0,3,0)
  ShowMessageFace("kerberos_fc1",0,0,2,23)
  ShowMessage("【シーザー】")
  ShowMessage("よし、気合い入れて行くぞ！")
  355("interrupt_skill(3294)")
  EndEventProcessing()
  0()
 EndIf()
 If(1,11,0,4,0)
  ShowMessageFace("kerberos_fc1",1,0,2,24)
  ShowMessage("【シーザー】")
  ShowMessage("さあ、肉を食え！")
  ShowMessageFace("",0,0,2,25)
  ShowMessage("シーザーからの差し入れだ！")
  250(bytes(0x04,0x08,0x6f,0x3a,0x0c,0x52,0x50,0x47,0x3a,0x3a,0x53,0x45,0x08,0x3a,0x0a,0x40,0x6e,0x61,0x6d,0x65,0x49,0x22,0x0a,0x49,0x74,0x65,0x6d,0x31,0x06,0x3a,0x06,0x45,0x54,0x3a,0x0b,0x40,0x70,0x69,0x74,0x63,0x68,0x69,0x69,0x3a,0x0c,0x40,0x76,0x6f,0x6c,0x75,0x6d,0x65,0x69,0x55))
  ChangeInventory_Item(329,0,0,1)
  ShowMessageFace("",0,0,2,26)
  ShowMessage("「肉」を手に入れた！")
  EndEventProcessing()
  0()
 EndIf()
 If(1,11,0,5,0)
  ShowMessageFace("kerberos_fc1",0,0,2,27)
  ShowMessage("【シーザー】")
  ShowMessage("うぉぉぉぉ……！！")
  355("interrupt_skill(2695)")
  EndEventProcessing()
  0()
 EndIf()
 0()
EndIf()
If(1,100,0,214,0)
 If(1,11,0,1,0)
  ShowMessageFace("nureonnna_fc1",1,0,2,28)
  ShowMessage("【白波】")
  ShowMessage("シャー！！")
  355("interrupt_skill(3312)")
  EndEventProcessing()
  0()
 EndIf()
 If(1,11,0,2,0)
  ShowMessageFace("nureonnna_fc1",0,0,2,29)
  ShowMessage("【白波】")
  ShowMessage("そう、自分の生き様に悩んでいるのね……")
  ShowMessageFace("",0,0,2,30)
  ShowMessage("白波は蛇の悩みを聞いている……")
  EndEventProcessing()
  0()
 EndIf()
 If(1,11,0,3,0)
  ShowMessageFace("nureonnna_fc1",0,0,2,31)
  ShowMessage("【白波】")
  ShowMessage("濡れ女だから、ヌレヌレよ……")
  313(0,214,0,23)
  ShowMessageFace("",0,0,2,32)
  ShowMessage("白波はヌルヌルになった！")
  EndEventProcessing()
  0()
 EndIf()
 If(1,11,0,4,0)
  ShowMessageFace("nureonnna_fc1",0,0,2,33)
  ShowMessage("【白波】")
  ShowMessage("ほら、これをあげるわ……")
  ShowMessageFace("",0,0,2,34)
  ShowMessage("白波からの差し入れだ！")
  250(bytes(0x04,0x08,0x6f,0x3a,0x0c,0x52,0x50,0x47,0x3a,0x3a,0x53,0x45,0x08,0x3a,0x0a,0x40,0x6e,0x61,0x6d,0x65,0x49,0x22,0x0a,0x49,0x74,0x65,0x6d,0x31,0x06,0x3a,0x06,0x45,0x54,0x3a,0x0b,0x40,0x70,0x69,0x74,0x63,0x68,0x69,0x69,0x3a,0x0c,0x40,0x76,0x6f,0x6c,0x75,0x6d,0x65,0x69,0x55))
  ChangeInventory_Item(315,0,0,1)
  ShowMessageFace("",0,0,2,35)
  ShowMessage("「ネギ」を手に入れた！")
  EndEventProcessing()
  0()
 EndIf()
 If(1,11,0,5,0)
  ShowMessageFace("nureonnna_fc1",0,0,2,36)
  ShowMessage("【白波】")
  ShowMessage("楽しみたいのかしら……？")
  355("interrupt_skill(3296)")
  EndEventProcessing()
  0()
 EndIf()
 0()
EndIf()
If(1,100,0,215,0)
 If(1,11,0,1,0)
  ShowMessageFace("h_mino_fc1",0,0,2,37)
  ShowMessage("【キャロル】")
  ShowMessage("えい！　やぁ！")
  ShowMessageFace("",0,0,2,38)
  ShowMessage("キャロルは武器を素振りしている……")
  EndEventProcessing()
  0()
 EndIf()
 If(1,11,0,2,0)
  ShowMessageFace("h_mino_fc1",0,0,2,39)
  ShowMessage("【キャロル】")
  ShowMessage("えい！　やぁ！")
  355("interrupt_skill(3291)")
  EndEventProcessing()
  0()
 EndIf()
 If(1,11,0,3,0)
  ShowMessageFace("h_mino_fc1",3,0,2,40)
  ShowMessage("【キャロル】")
  ShowMessage("うふふっ……♪")
  ShowMessageFace("",0,0,2,41)
  ShowMessage("キャロルはにっこりほほえんだ！")
  EndEventProcessing()
  0()
 EndIf()
 If(1,11,0,4,0)
  ShowMessageFace("h_mino_fc1",3,0,2,42)
  ShowMessage("【キャロル】")
  ShowMessage("はい、お姉さんのミルクよ♪")
  ShowMessageFace("",0,0,2,43)
  ShowMessage("キャロルからの差し入れだ！")
  250(bytes(0x04,0x08,0x6f,0x3a,0x0c,0x52,0x50,0x47,0x3a,0x3a,0x53,0x45,0x08,0x3a,0x0a,0x40,0x6e,0x61,0x6d,0x65,0x49,0x22,0x0a,0x49,0x74,0x65,0x6d,0x31,0x06,0x3a,0x06,0x45,0x54,0x3a,0x0b,0x40,0x70,0x69,0x74,0x63,0x68,0x69,0x69,0x3a,0x0c,0x40,0x76,0x6f,0x6c,0x75,0x6d,0x65,0x69,0x55))
  ChangeInventory_Item(342,0,0,1)
  ShowMessageFace("",0,0,2,44)
  ShowMessage("「ミルク」を手に入れた！")
  EndEventProcessing()
  0()
 EndIf()
 If(1,11,0,5,0)
  ShowMessageFace("h_mino_fc1",0,0,2,45)
  ShowMessage("【キャロル】")
  ShowMessage("行くわよ……ふんっ！")
  355("interrupt_skill(3294)")
  EndEventProcessing()
  0()
 EndIf()
 0()
EndIf()
If(1,100,0,216,0)
 If(1,11,0,1,0)
  ShowMessageFace("m_mino_fc1",0,0,2,46)
  ShowMessage("【オデット】")
  ShowMessage("これ、よかったら食べて？")
  ShowMessageFace("",0,0,2,47)
  ShowMessage("オデットからの差し入れだ！")
  250(bytes(0x04,0x08,0x6f,0x3a,0x0c,0x52,0x50,0x47,0x3a,0x3a,0x53,0x45,0x08,0x3a,0x0a,0x40,0x6e,0x61,0x6d,0x65,0x49,0x22,0x0a,0x49,0x74,0x65,0x6d,0x31,0x06,0x3a,0x06,0x45,0x54,0x3a,0x0b,0x40,0x70,0x69,0x74,0x63,0x68,0x69,0x69,0x3a,0x0c,0x40,0x76,0x6f,0x6c,0x75,0x6d,0x65,0x69,0x55))
  ChangeInventory_Item(380,0,0,1)
  ShowMessageFace("",0,0,2,48)
  ShowMessage("「野菜炒め」を手に入れた！")
  EndEventProcessing()
  0()
 EndIf()
 If(1,11,0,2,0)
  ShowMessageFace("m_mino_fc1",0,0,2,49)
  ShowMessage("【オデット】")
  ShowMessage("さあ、がんばるわよ……♪")
  355("interrupt_skill(3300)")
  EndEventProcessing()
  0()
 EndIf()
 If(1,11,0,3,0)
  ShowMessageFace("m_mino_fc1",5,0,2,50)
  ShowMessage("【オデット】")
  ShowMessage("……………………")
  313(0,216,0,24)
  ShowMessageFace("",0,0,2,51)
  ShowMessage("オデットはいやらしい事を考えている……")
  ShowMessage("オデットは敏感になってしまった！")
  EndEventProcessing()
  0()
 EndIf()
 If(1,11,0,4,0)
  ShowMessageFace("m_mino_fc1",0,0,2,52)
  ShowMessage("【オデット】")
  ShowMessage("ふふっ、飲んでもらえるかしらぁ……？")
  ShowMessageFace("",0,0,2,53)
  ShowMessage("オデットからの差し入れだ！")
  250(bytes(0x04,0x08,0x6f,0x3a,0x0c,0x52,0x50,0x47,0x3a,0x3a,0x53,0x45,0x08,0x3a,0x0a,0x40,0x6e,0x61,0x6d,0x65,0x49,0x22,0x0a,0x49,0x74,0x65,0x6d,0x31,0x06,0x3a,0x06,0x45,0x54,0x3a,0x0b,0x40,0x70,0x69,0x74,0x63,0x68,0x69,0x69,0x3a,0x0c,0x40,0x76,0x6f,0x6c,0x75,0x6d,0x65,0x69,0x55))
  ChangeInventory_Item(342,0,0,1)
  ShowMessageFace("",0,0,2,54)
  ShowMessage("「ミルク」を手に入れた！")
  EndEventProcessing()
  0()
 EndIf()
 If(1,11,0,5,0)
  ShowMessageFace("m_mino_fc1",0,0,2,55)
  ShowMessage("【オデット】")
  ShowMessage("うふふっ……")
  355("interrupt_skill(3296)")
  EndEventProcessing()
  0()
 EndIf()
 0()
EndIf()
If(1,100,0,217,0)
 If(1,11,0,1,0)
  ShowMessageFace("zinitauros_fc1",1,0,2,56)
  ShowMessage("【トーラ】")
  ShowMessage("むっ、新しい発明のアイデアが……！")
  ShowMessageFace("",0,0,2,57)
  ShowMessage("トーラは何かをメモしている……")
  EndEventProcessing()
  0()
 EndIf()
 If(1,11,0,2,0)
  ShowMessageFace("zinitauros_fc1",2,0,2,58)
  ShowMessage("【トーラ】")
  ShowMessage("どうせあたしは、非力なミノタウロスさ……")
  ShowMessageFace("",0,0,2,59)
  ShowMessage("トーラはすねている……")
  EndEventProcessing()
  0()
 EndIf()
 If(1,11,0,3,0)
  ShowMessageFace("zinitauros_fc1",2,0,2,60)
  ShowMessage("【トーラ】")
  ShowMessage("これが新式の除草剤……")
  ShowMessage("うわっ、なんだこの煙は！？")
  355("interrupt_skill(3304)")
  EndEventProcessing()
  0()
 EndIf()
 If(1,11,0,4,0)
  ShowMessageFace("zinitauros_fc1",0,0,2,61)
  ShowMessage("【トーラ】")
  ShowMessage("余った機械部品、いらないからやるよ。")
  ShowMessageFace("",0,0,2,62)
  ShowMessage("トーラからの差し入れだ！")
  250(bytes(0x04,0x08,0x6f,0x3a,0x0c,0x52,0x50,0x47,0x3a,0x3a,0x53,0x45,0x08,0x3a,0x0a,0x40,0x6e,0x61,0x6d,0x65,0x49,0x22,0x0a,0x49,0x74,0x65,0x6d,0x31,0x06,0x3a,0x06,0x45,0x54,0x3a,0x0b,0x40,0x70,0x69,0x74,0x63,0x68,0x69,0x69,0x3a,0x0c,0x40,0x76,0x6f,0x6c,0x75,0x6d,0x65,0x69,0x55))
  ChangeInventory_Item(219,0,0,1)
  ShowMessageFace("",0,0,2,63)
  ShowMessage("「魔導の歯車」を手に入れた！")
  EndEventProcessing()
  0()
 EndIf()
 If(1,11,0,5,0)
  ShowMessageFace("zinitauros_fc1",2,0,2,64)
  ShowMessage("【トーラ】")
  ShowMessage("わわっ、新型銃の制御が……！")
  355("interrupt_skill(3311)")
  EndEventProcessing()
  0()
 EndIf()
 0()
EndIf()
If(1,100,0,218,0)
 If(1,11,0,1,0)
  ShowMessageFace("nyumaou_fc1",0,0,2,65)
  ShowMessage("【牛魔王】")
  ShowMessage("ぬぉぉぉー！！")
  355("interrupt_skill(3292)")
  EndEventProcessing()
  0()
 EndIf()
 If(1,11,0,2,0)
  ShowMessageFace("nyumaou_fc1",0,0,2,66)
  ShowMessage("【牛魔王】")
  ShowMessage("妾はクィーンビーストになってみせるぞ！")
  ShowMessageFace("",0,0,2,67)
  ShowMessage("牛魔王は大胆に宣言した！")
  ShowMessage("しかし誰も聞いていない……")
  EndEventProcessing()
  0()
 EndIf()
 If(1,11,0,3,0)
  ShowMessageFace("nyumaou_fc1",0,0,2,68)
  ShowMessage("【牛魔王】")
  ShowMessage("妾は多忙でな、少し休ませてもらうぞ……")
  313(0,218,0,11)
  ShowMessageFace("",0,0,2,69)
  ShowMessage("牛魔王は居眠りしている……")
  EndEventProcessing()
  0()
 EndIf()
 If(1,11,0,4,0)
  ShowMessageFace("nyumaou_fc1",0,0,2,70)
  ShowMessage("【牛魔王】")
  ShowMessage("すきやき王の名、伊達ではないぞ！")
  ShowMessageFace("",0,0,2,71)
  ShowMessage("すきやきからの差し入れだ！")
  250(bytes(0x04,0x08,0x6f,0x3a,0x0c,0x52,0x50,0x47,0x3a,0x3a,0x53,0x45,0x08,0x3a,0x0a,0x40,0x6e,0x61,0x6d,0x65,0x49,0x22,0x0a,0x49,0x74,0x65,0x6d,0x31,0x06,0x3a,0x06,0x45,0x54,0x3a,0x0b,0x40,0x70,0x69,0x74,0x63,0x68,0x69,0x69,0x3a,0x0c,0x40,0x76,0x6f,0x6c,0x75,0x6d,0x65,0x69,0x55))
  ChangeInventory_Item(378,0,0,1)
  ShowMessageFace("",0,0,2,72)
  ShowMessage("「すきやき」を手に入れた！")
  EndEventProcessing()
  0()
 EndIf()
 If(1,11,0,5,0)
  ShowMessageFace("nyumaou_fc1",2,0,2,73)
  ShowMessage("【牛魔王】")
  ShowMessage("ぬおっ！　足が滑った！")
  355("interrupt_skill(2993)")
  EndEventProcessing()
  0()
 EndIf()
 0()
EndIf()
If(1,100,0,219,0)
 If(1,11,0,1,0)
  ShowMessageFace("kunoitielf_fc1",0,0,2,74)
  ShowMessage("【かすみ】")
  ShowMessage("にんにん……")
  ShowMessageFace("",0,0,2,75)
  ShowMessage("かすみはにんにん呟いている……")
  EndEventProcessing()
  0()
 EndIf()
 If(1,11,0,2,0)
  ShowMessageFace("kunoitielf_fc1",0,0,2,76)
  ShowMessage("【かすみ】")
  ShowMessage("私は植物となりきる……")
  ShowMessageFace("",0,0,2,77)
  ShowMessage("かすみは意識を無にした！")
  ShowMessage("しかし、戦局に一切貢献していない！")
  EndEventProcessing()
  0()
 EndIf()
 If(1,11,0,3,0)
  ShowMessageFace("kunoitielf_fc1",0,0,2,78)
  ShowMessage("【かすみ】")
  ShowMessage("忍法・狐寝入りの術……")
  313(0,219,0,11)
  ShowMessageFace("",0,0,2,79)
  ShowMessage("かすみは居眠りしている……")
  EndEventProcessing()
  0()
 EndIf()
 If(1,11,0,4,0)
  ShowMessageFace("kunoitielf_fc1",0,0,2,80)
  ShowMessage("【かすみ】")
  ShowMessage("忍法・おにぎりの術……")
  ShowMessageFace("",0,0,2,81)
  ShowMessage("かすみからの差し入れだ！")
  250(bytes(0x04,0x08,0x6f,0x3a,0x0c,0x52,0x50,0x47,0x3a,0x3a,0x53,0x45,0x08,0x3a,0x0a,0x40,0x6e,0x61,0x6d,0x65,0x49,0x22,0x0a,0x49,0x74,0x65,0x6d,0x31,0x06,0x3a,0x06,0x45,0x54,0x3a,0x0b,0x40,0x70,0x69,0x74,0x63,0x68,0x69,0x69,0x3a,0x0c,0x40,0x76,0x6f,0x6c,0x75,0x6d,0x65,0x69,0x55))
  ChangeInventory_Item(361,0,0,1)
  ShowMessageFace("",0,0,2,82)
  ShowMessage("「おにぎり」を手に入れた！")
  EndEventProcessing()
  0()
 EndIf()
 If(1,11,0,5,0)
  ShowMessageFace("kunoitielf_fc1",0,0,2,83)
  ShowMessage("【かすみ】")
  ShowMessage("たまには、狐族の忍術というのを使ってみよう……")
  355("interrupt_skill(1794)")
  EndEventProcessing()
  0()
 EndIf()
 0()
EndIf()
If(1,100,0,220,0)
 If(1,11,0,1,0)
  ShowMessageFace("samuraielf_fc1",0,0,2,84)
  ShowMessage("【月花】")
  ShowMessage("はぁっ！　やぁっ！")
  355("interrupt_skill(3291)")
  EndEventProcessing()
  0()
 EndIf()
 If(1,11,0,2,0)
  ShowMessageFace("samuraielf_fc1",0,0,2,85)
  ShowMessage("【月花】")
  ShowMessage("はぁっ！　やぁっ！")
  ShowMessageFace("",0,0,2,86)
  ShowMessage("月花は武器を素振りしている……")
  EndEventProcessing()
  0()
 EndIf()
 If(1,11,0,3,0)
  ShowMessageFace("samuraielf_fc1",0,0,2,87)
  ShowMessage("【月花】")
  ShowMessage("残心……")
  ShowMessageFace("",0,0,2,88)
  ShowMessage("月花はぼんやりしている……")
  EndEventProcessing()
  0()
 EndIf()
 If(1,11,0,4,0)
  ShowMessageFace("samuraielf_fc1",0,0,2,89)
  ShowMessage("【月花】")
  ShowMessage("非常食だ、持っていけ……")
  ShowMessageFace("",0,0,2,90)
  ShowMessage("月花からの差し入れだ！")
  250(bytes(0x04,0x08,0x6f,0x3a,0x0c,0x52,0x50,0x47,0x3a,0x3a,0x53,0x45,0x08,0x3a,0x0a,0x40,0x6e,0x61,0x6d,0x65,0x49,0x22,0x0a,0x49,0x74,0x65,0x6d,0x31,0x06,0x3a,0x06,0x45,0x54,0x3a,0x0b,0x40,0x70,0x69,0x74,0x63,0x68,0x69,0x69,0x3a,0x0c,0x40,0x76,0x6f,0x6c,0x75,0x6d,0x65,0x69,0x55))
  ChangeInventory_Item(432,0,0,1)
  ShowMessageFace("",0,0,2,91)
  ShowMessage("「ほしにく」を手に入れた！")
  EndEventProcessing()
  0()
 EndIf()
 If(1,11,0,5,0)
  ShowMessageFace("samuraielf_fc1",0,0,2,92)
  ShowMessage("【月花】")
  ShowMessage("はぁっ！")
  355("interrupt_skill(3294)")
  EndEventProcessing()
  0()
 EndIf()
 0()
EndIf()
0()
