// EVENT 0097
Name "Skill: Play 571-580"

ChangeVariable(11,11,0,2,1,5)
If(1,100,0,571,0)
 If(1,11,0,1,0)
  ShowMessageFace("mob_kaihei_fc1",0,0,2,1)
  ShowMessage("【ミリオ】")
  ShowMessage("ハッスル♪　ハッスル♪")
  355("interrupt_skill(2047)")
  EndEventProcessing()
  0()
 EndIf()
 If(1,11,0,2,0)
  ShowMessageFace("mob_kaihei_fc1",0,0,2,2)
  ShowMessage("【ミリオ】")
  ShowMessage("海兵のポーズ！")
  ShowMessageFace("",0,0,2,3)
  ShowMessage("ミリオは海兵のポーズを取った！")
  ShowMessage("しかし、何も起こらなかった！")
  EndEventProcessing()
  0()
 EndIf()
 If(1,11,0,3,0)
  ShowMessageFace("mob_kaihei_fc1",0,0,2,4)
  ShowMessage("【ミリオ】")
  ShowMessage("らららら～♪")
  ShowMessageFace("",0,0,2,5)
  ShowMessage("ミリオは陽気に歌って踊っている……")
  EndEventProcessing()
  0()
 EndIf()
 If(1,11,0,4,0)
  ShowMessageFace("mob_kaihei_fc1",0,0,2,6)
  ShowMessage("【ミリオ】")
  ShowMessage("これ、食べてね♪")
  ShowMessageFace("",0,0,2,7)
  ShowMessage("ミリオからの差し入れだ！")
  250(bytes(0x04,0x08,0x6f,0x3a,0x0c,0x52,0x50,0x47,0x3a,0x3a,0x53,0x45,0x08,0x3a,0x0a,0x40,0x6e,0x61,0x6d,0x65,0x49,0x22,0x0a,0x49,0x74,0x65,0x6d,0x31,0x06,0x3a,0x06,0x45,0x54,0x3a,0x0b,0x40,0x70,0x69,0x74,0x63,0x68,0x69,0x69,0x3a,0x0c,0x40,0x76,0x6f,0x6c,0x75,0x6d,0x65,0x69,0x55))
  ChangeInventory_Item(424,0,0,1)
  ShowMessageFace("",0,0,2,8)
  ShowMessage("「アイスクリーム」を手に入れた！")
  EndEventProcessing()
  0()
 EndIf()
 If(1,11,0,5,0)
  ShowMessageFace("mob_kaihei_fc1",0,0,2,9)
  ShowMessage("【ミリオ】")
  ShowMessage("いっけ～！")
  355("interrupt_skill(1833)")
  EndEventProcessing()
  0()
 EndIf()
 0()
EndIf()
If(1,100,0,572,0)
 If(1,11,0,1,0)
  ShowMessageFace("mob_murabito3_fc1",1,0,2,10)
  ShowMessage("【ララ】")
  ShowMessage("う～ん、どうしましょうか……")
  ShowMessageFace("",0,0,2,11)
  ShowMessage("ララは今晩の献立を考えている……")
  EndEventProcessing()
  0()
 EndIf()
 If(1,11,0,2,0)
  ShowMessageFace("mob_murabito3_fc1",5,0,2,12)
  ShowMessage("【ララ】")
  ShowMessage("うふふっ……")
  ShowMessageFace("",0,0,2,13)
  ShowMessage("ララはにっこり微笑んだ！")
  ShowMessage("しかし何も起きなかった……")
  EndEventProcessing()
  0()
 EndIf()
 If(1,11,0,3,0)
  ShowMessageFace("mob_murabito3_fc1",0,0,2,14)
  ShowMessage("【ララ】")
  ShowMessage("あの……これ、差し入れです。")
  ShowMessageFace("",0,0,2,15)
  ShowMessage("ララからの差し入れだ！")
  250(bytes(0x04,0x08,0x6f,0x3a,0x0c,0x52,0x50,0x47,0x3a,0x3a,0x53,0x45,0x08,0x3a,0x0a,0x40,0x6e,0x61,0x6d,0x65,0x49,0x22,0x0a,0x49,0x74,0x65,0x6d,0x31,0x06,0x3a,0x06,0x45,0x54,0x3a,0x0b,0x40,0x70,0x69,0x74,0x63,0x68,0x69,0x69,0x3a,0x0c,0x40,0x76,0x6f,0x6c,0x75,0x6d,0x65,0x69,0x55))
  ChangeInventory_Item(380,0,0,1)
  ShowMessageFace("",0,0,2,16)
  ShowMessage("「野菜炒め」を手に入れた！")
  EndEventProcessing()
  0()
 EndIf()
 If(1,11,0,4,0)
  ShowMessageFace("mob_murabito3_fc1",0,0,2,17)
  ShowMessage("【ララ】")
  ShowMessage("あの……これ、差し入れです。")
  ShowMessageFace("",0,0,2,18)
  ShowMessage("ララからの差し入れだ！")
  250(bytes(0x04,0x08,0x6f,0x3a,0x0c,0x52,0x50,0x47,0x3a,0x3a,0x53,0x45,0x08,0x3a,0x0a,0x40,0x6e,0x61,0x6d,0x65,0x49,0x22,0x0a,0x49,0x74,0x65,0x6d,0x31,0x06,0x3a,0x06,0x45,0x54,0x3a,0x0b,0x40,0x70,0x69,0x74,0x63,0x68,0x69,0x69,0x3a,0x0c,0x40,0x76,0x6f,0x6c,0x75,0x6d,0x65,0x69,0x55))
  ChangeInventory_Item(389,0,0,1)
  ShowMessageFace("",0,0,2,19)
  ShowMessage("「味噌汁」を手に入れた！")
  EndEventProcessing()
  0()
 EndIf()
 If(1,11,0,5,0)
  ShowMessageFace("mob_murabito3_fc1",0,0,2,20)
  ShowMessage("【ララ】")
  ShowMessage("わっ、足元が……")
  355("interrupt_skill(3293)")
  EndEventProcessing()
  0()
 EndIf()
 0()
EndIf()
If(1,100,0,573,0)
 If(1,11,0,1,0)
  ShowMessageFace("mob_sensi1_fc1",0,0,2,21)
  ShowMessage("【ジュリア】")
  ShowMessage("はぁぁっ！")
  355("interrupt_skill(3294)")
  EndEventProcessing()
  0()
 EndIf()
 If(1,11,0,2,0)
  ShowMessageFace("mob_sensi1_fc1",0,0,2,22)
  ShowMessage("【ジュリア】")
  ShowMessage("さあ、行くよっ！")
  ShowMessageFace("",0,0,2,23)
  ShowMessage("ジュリアはせわしなく周囲を駆け回っている！")
  EndEventProcessing()
  0()
 EndIf()
 If(1,11,0,3,0)
  ShowMessageFace("mob_sensi1_fc1",0,0,2,24)
  ShowMessage("【ジュリア】")
  ShowMessage("体が痺れるわ……")
  ShowMessage("朝に食べたビリビリ草のサラダのせい……？")
  313(0,573,0,12)
  ShowMessageFace("",0,0,2,25)
  ShowMessage("ジュリアは麻痺してしまった！")
  EndEventProcessing()
  0()
 EndIf()
 If(1,11,0,4,0)
  ShowMessageFace("mob_sensi1_fc1",0,0,2,26)
  ShowMessage("【ジュリア】")
  ShowMessage("ほら、これを食べて力を付けなさい。")
  ShowMessageFace("",0,0,2,27)
  ShowMessage("ジュリアからの差し入れだ！")
  250(bytes(0x04,0x08,0x6f,0x3a,0x0c,0x52,0x50,0x47,0x3a,0x3a,0x53,0x45,0x08,0x3a,0x0a,0x40,0x6e,0x61,0x6d,0x65,0x49,0x22,0x0a,0x49,0x74,0x65,0x6d,0x31,0x06,0x3a,0x06,0x45,0x54,0x3a,0x0b,0x40,0x70,0x69,0x74,0x63,0x68,0x69,0x69,0x3a,0x0c,0x40,0x76,0x6f,0x6c,0x75,0x6d,0x65,0x69,0x55))
  ChangeInventory_Item(405,0,0,1)
  ShowMessageFace("",0,0,2,28)
  ShowMessage("「肉まん」を手に入れた！")
  EndEventProcessing()
  0()
 EndIf()
 If(1,11,0,5,0)
  ShowMessageFace("mob_sensi1_fc1",0,0,2,29)
  ShowMessage("【ジュリア】")
  ShowMessage("だらー！！")
  355("interrupt_skill(3292)")
  EndEventProcessing()
  0()
 EndIf()
 0()
EndIf()
If(1,100,0,574,0)
 If(1,11,0,1,0)
  ShowMessageFace("mob_miko1_fc1",1,0,2,30)
  ShowMessage("【さつき】")
  ShowMessage("がんばってくださーい！")
  355("interrupt_skill(3300)")
  EndEventProcessing()
  0()
 EndIf()
 If(1,11,0,2,0)
  ShowMessageFace("mob_miko1_fc1",5,0,2,31)
  ShowMessage("【さつき】")
  ShowMessage("はぁ……はぁ……")
  355("interrupt_skill(3295)")
  EndEventProcessing()
  0()
 EndIf()
 If(1,11,0,3,0)
  ShowMessageFace("mob_miko1_fc1",5,0,2,32)
  ShowMessage("【さつき】")
  ShowMessage("むふふっ……")
  313(0,574,0,24)
  ShowMessageFace("",0,0,2,33)
  ShowMessage("さつきはいやらしい事を考えている……")
  ShowMessage("さつきは敏感になってしまった！")
  EndEventProcessing()
  0()
 EndIf()
 If(1,11,0,4,0)
  ShowMessageFace("mob_miko1_fc1",2,0,2,34)
  ShowMessage("【さつき】")
  ShowMessage("これ、差し入れです♪")
  ShowMessageFace("",0,0,2,35)
  ShowMessage("さつきからの差し入れだ！")
  250(bytes(0x04,0x08,0x6f,0x3a,0x0c,0x52,0x50,0x47,0x3a,0x3a,0x53,0x45,0x08,0x3a,0x0a,0x40,0x6e,0x61,0x6d,0x65,0x49,0x22,0x0a,0x49,0x74,0x65,0x6d,0x31,0x06,0x3a,0x06,0x45,0x54,0x3a,0x0b,0x40,0x70,0x69,0x74,0x63,0x68,0x69,0x69,0x3a,0x0c,0x40,0x76,0x6f,0x6c,0x75,0x6d,0x65,0x69,0x55))
  ChangeInventory_Item(372,0,0,1)
  ShowMessageFace("",0,0,2,36)
  ShowMessage("「うな重」を手に入れた！")
  EndEventProcessing()
  0()
 EndIf()
 If(1,11,0,5,0)
  ShowMessageFace("mob_miko1_fc1",5,0,2,37)
  ShowMessage("【さつき】")
  ShowMessage("うふふっ……")
  355("interrupt_skill(3296)")
  EndEventProcessing()
  0()
 EndIf()
 0()
EndIf()
If(1,100,0,575,0)
 If(1,11,0,1,0)
  ShowMessageFace("mob_samurai_fc1",0,0,2,38)
  ShowMessage("【弥生】")
  ShowMessage("えいっ！　せいっ！")
  355("interrupt_skill(3291)")
  EndEventProcessing()
  0()
 EndIf()
 If(1,11,0,2,0)
  ShowMessageFace("mob_samurai_fc1",0,0,2,39)
  ShowMessage("【弥生】")
  ShowMessage("えいっ！　せいっ！")
  ShowMessageFace("",0,0,2,40)
  ShowMessage("弥生は武器を素振りしている……")
  EndEventProcessing()
  0()
 EndIf()
 If(1,11,0,3,0)
  ShowMessageFace("mob_samurai_fc1",0,0,2,41)
  ShowMessage("【弥生】")
  ShowMessage("大地に蠢く悪あれば、ぎらりと煌めく我が刃……")
  ShowMessageFace("",0,0,2,42)
  ShowMessage("弥生は決め台詞の練習をしている……")
  EndEventProcessing()
  0()
 EndIf()
 If(1,11,0,4,0)
  ShowMessageFace("mob_samurai_fc1",1,0,2,43)
  ShowMessage("【弥生】")
  ShowMessage("少々、形が悪いかもしれんが……握ってみたぞ。")
  ShowMessageFace("",0,0,2,44)
  ShowMessage("弥生からの差し入れだ！")
  250(bytes(0x04,0x08,0x6f,0x3a,0x0c,0x52,0x50,0x47,0x3a,0x3a,0x53,0x45,0x08,0x3a,0x0a,0x40,0x6e,0x61,0x6d,0x65,0x49,0x22,0x0a,0x49,0x74,0x65,0x6d,0x31,0x06,0x3a,0x06,0x45,0x54,0x3a,0x0b,0x40,0x70,0x69,0x74,0x63,0x68,0x69,0x69,0x3a,0x0c,0x40,0x76,0x6f,0x6c,0x75,0x6d,0x65,0x69,0x55))
  ChangeInventory_Item(361,0,0,1)
  ShowMessageFace("",0,0,2,45)
  ShowMessage("「おにぎり」を手に入れた！")
  EndEventProcessing()
  0()
 EndIf()
 If(1,11,0,5,0)
  ShowMessageFace("mob_samurai_fc1",0,0,2,46)
  ShowMessage("【弥生】")
  ShowMessage("キエエエエ！！")
  355("interrupt_skill(3292)")
  EndEventProcessing()
  0()
 EndIf()
 0()
EndIf()
If(1,100,0,576,0)
 If(1,11,0,1,0)
  ShowMessageFace("mob_gakusya2_fc1",1,0,2,47)
  ShowMessage("【ルーファ】")
  ShowMessage("あっ、レポート書かなきゃ……")
  ShowMessageFace("",0,0,2,48)
  ShowMessage("ルーファはレポートを書いている……")
  EndEventProcessing()
  0()
 EndIf()
 If(1,11,0,2,0)
  ShowMessageFace("mob_gakusya2_fc1",0,0,2,49)
  ShowMessage("【ルーファ】")
  ShowMessage("わーい！")
  ShowMessageFace("",0,0,2,50)
  ShowMessage("ルーファはクラッカーを鳴らした！")
  ShowMessage("しかし誰も相手にしない……")
  EndEventProcessing()
  0()
 EndIf()
 If(1,11,0,3,0)
  ShowMessageFace("mob_gakusya2_fc1",1,0,2,51)
  ShowMessage("【ルーファ】")
  ShowMessage("昨日はレポートで徹夜だったの……")
  313(0,576,0,11)
  ShowMessageFace("",0,0,2,52)
  ShowMessage("ルーファは居眠りしている……")
  EndEventProcessing()
  0()
 EndIf()
 If(1,11,0,4,0)
  ShowMessageFace("mob_gakusya2_fc1",0,0,2,53)
  ShowMessage("【ルーファ】")
  ShowMessage("これ、夜の秘密兵器だよ！")
  ShowMessageFace("",0,0,2,54)
  ShowMessage("ルーファからの差し入れだ！")
  250(bytes(0x04,0x08,0x6f,0x3a,0x0c,0x52,0x50,0x47,0x3a,0x3a,0x53,0x45,0x08,0x3a,0x0a,0x40,0x6e,0x61,0x6d,0x65,0x49,0x22,0x0a,0x49,0x74,0x65,0x6d,0x31,0x06,0x3a,0x06,0x45,0x54,0x3a,0x0b,0x40,0x70,0x69,0x74,0x63,0x68,0x69,0x69,0x3a,0x0c,0x40,0x76,0x6f,0x6c,0x75,0x6d,0x65,0x69,0x55))
  ChangeInventory_Item(427,0,0,1)
  ShowMessageFace("",0,0,2,55)
  ShowMessage("「コーヒー」を手に入れた！")
  EndEventProcessing()
  0()
 EndIf()
 If(1,11,0,5,0)
  ShowMessageFace("mob_gakusya2_fc1",0,0,2,56)
  ShowMessage("【ルーファ】")
  ShowMessage("どかーん！")
  355("interrupt_skill(3206)")
  EndEventProcessing()
  0()
 EndIf()
 0()
EndIf()
If(1,100,0,577,0)
 If(1,11,0,1,0)
  ShowMessageFace("mob_mahousyouzyo_fc1",0,0,2,57)
  ShowMessage("【マジカルまりんちゃん】")
  ShowMessage("まじかる☆まりん♪")
  ShowMessageFace("",0,0,2,58)
  ShowMessage("マジカルまりんちゃんは決めポーズを繰り出した！")
  ShowMessage("しかし誰も見ていない……")
  EndEventProcessing()
  0()
 EndIf()
 If(1,11,0,2,0)
  ShowMessageFace("mob_mahousyouzyo_fc2",0,0,2,59)
  ShowMessage("【マジカルまりんちゃん】")
  ShowMessage("まじかる☆")
  355("interrupt_skill(3295)")
  EndEventProcessing()
  0()
 EndIf()
 If(1,11,0,3,0)
  ShowMessageFace("mob_mahousyouzyo_fc2",0,0,2,60)
  ShowMessage("【マジカルまりんちゃん】")
  ShowMessage("がんばれ♪　がんばれ♪")
  355("interrupt_skill(3300)")
  EndEventProcessing()
  0()
 EndIf()
 If(1,11,0,4,0)
  ShowMessageFace("mob_mahousyouzyo_fc2",0,0,2,61)
  ShowMessage("【マジカルまりんちゃん】")
  ShowMessage("差し入れだよっ♪")
  ShowMessageFace("",0,0,2,62)
  ShowMessage("マジカルまりんちゃんからの差し入れだ！")
  250(bytes(0x04,0x08,0x6f,0x3a,0x0c,0x52,0x50,0x47,0x3a,0x3a,0x53,0x45,0x08,0x3a,0x0a,0x40,0x6e,0x61,0x6d,0x65,0x49,0x22,0x0a,0x49,0x74,0x65,0x6d,0x31,0x06,0x3a,0x06,0x45,0x54,0x3a,0x0b,0x40,0x70,0x69,0x74,0x63,0x68,0x69,0x69,0x3a,0x0c,0x40,0x76,0x6f,0x6c,0x75,0x6d,0x65,0x69,0x55))
  ChangeInventory_Item(441,0,0,1)
  ShowMessageFace("",0,0,2,63)
  ShowMessage("「セミの抜け殻」を手に入れた！")
  EndEventProcessing()
  0()
 EndIf()
 If(1,11,0,5,0)
  ShowMessageFace("mob_mahousyouzyo_fc1",0,0,2,64)
  ShowMessage("【マジカルまりんちゃん】")
  ShowMessage("まじかる☆オーラ♪")
  355("interrupt_skill(3304)")
  EndEventProcessing()
  0()
 EndIf()
 0()
EndIf()
If(1,100,0,578,0)
 If(1,11,0,1,0)
  ShowMessageFace("mob_heisi_fc1",0,0,2,65)
  ShowMessage("【アウグスタ】")
  ShowMessage("ひたすら鍛錬なのです！")
  ShowMessageFace("",0,0,2,66)
  ShowMessage("アウグスタはこっそり修行している……")
  EndEventProcessing()
  0()
 EndIf()
 If(1,11,0,2,0)
  ShowMessageFace("mob_heisi_fc1",0,0,2,67)
  ShowMessage("【アウグスタ】")
  ShowMessage("良好な食事は頑強な身体を作るのです！")
  ShowMessageFace("",0,0,2,68)
  ShowMessage("アウグスタは食料を盗み食いしている……")
  EndEventProcessing()
  0()
 EndIf()
 If(1,11,0,3,0)
  ShowMessageFace("mob_heisi_fc1",0,0,2,69)
  ShowMessage("【アウグスタ】")
  ShowMessage("良好な睡眠週間は頑強な身体を作るのです！")
  313(0,578,0,11)
  ShowMessageFace("",0,0,2,70)
  ShowMessage("アウグスタは居眠りしている……")
  EndEventProcessing()
  0()
 EndIf()
 If(1,11,0,4,0)
  ShowMessageFace("mob_heisi_fc1",0,0,2,71)
  ShowMessage("【アウグスタ】")
  ShowMessage("皆さんに差し入れなのです！")
  ShowMessageFace("",0,0,2,72)
  ShowMessage("アウグスタからの差し入れだ！")
  250(bytes(0x04,0x08,0x6f,0x3a,0x0c,0x52,0x50,0x47,0x3a,0x3a,0x53,0x45,0x08,0x3a,0x0a,0x40,0x6e,0x61,0x6d,0x65,0x49,0x22,0x0a,0x49,0x74,0x65,0x6d,0x31,0x06,0x3a,0x06,0x45,0x54,0x3a,0x0b,0x40,0x70,0x69,0x74,0x63,0x68,0x69,0x69,0x3a,0x0c,0x40,0x76,0x6f,0x6c,0x75,0x6d,0x65,0x69,0x55))
  ChangeInventory_Item(349,0,0,1)
  ShowMessageFace("",0,0,2,73)
  ShowMessage("「やきそばパン」を手に入れた！")
  EndEventProcessing()
  0()
 EndIf()
 If(1,11,0,5,0)
  ShowMessageFace("mob_heisi_fc1",0,0,2,74)
  ShowMessage("【アウグスタ】")
  ShowMessage("キャァァァ！！")
  355("interrupt_skill(3292)")
  EndEventProcessing()
  0()
 EndIf()
 0()
EndIf()
If(1,100,0,579,0)
 If(1,11,0,1,0)
  ShowMessageFace("mob_sanzoku_fc1",0,0,2,75)
  ShowMessage("【マグダ】")
  ShowMessage("でりゃぁぁぁぁ！")
  355("interrupt_skill(3292)")
  EndEventProcessing()
  0()
 EndIf()
 If(1,11,0,2,0)
  ShowMessageFace("mob_sanzoku_fc1",0,0,2,76)
  ShowMessage("【マグダ】")
  ShowMessage("あたしは山賊王になるよ！")
  ShowMessageFace("",0,0,2,77)
  ShowMessage("マグダは大胆に宣言した！")
  ShowMessage("しかし誰も聞いていない……")
  EndEventProcessing()
  0()
 EndIf()
 If(1,11,0,3,0)
  ShowMessageFace("mob_sanzoku_fc1",0,0,2,78)
  ShowMessage("【マグダ】")
  ShowMessage("とんずらするよっ！")
  ShowMessageFace("",0,0,2,79)
  ShowMessage("マグダは逃げ出した！")
  ShowMessage("しかし道が分からず、すぐ戻ってきた……")
  EndEventProcessing()
  0()
 EndIf()
 If(1,11,0,4,0)
  ShowMessageFace("mob_sanzoku_fc1",0,0,2,80)
  ShowMessage("【マグダ】")
  ShowMessage("これ、山賊稼業で頂いたのさ！")
  ShowMessageFace("",0,0,2,81)
  ShowMessage("マグダからの差し入れだ！")
  250(bytes(0x04,0x08,0x6f,0x3a,0x0c,0x52,0x50,0x47,0x3a,0x3a,0x53,0x45,0x08,0x3a,0x0a,0x40,0x6e,0x61,0x6d,0x65,0x49,0x22,0x0a,0x49,0x74,0x65,0x6d,0x31,0x06,0x3a,0x06,0x45,0x54,0x3a,0x0b,0x40,0x70,0x69,0x74,0x63,0x68,0x69,0x69,0x3a,0x0c,0x40,0x76,0x6f,0x6c,0x75,0x6d,0x65,0x69,0x55))
  ChangeInventory_Item(361,0,0,1)
  ShowMessageFace("",0,0,2,82)
  ShowMessage("「おにぎり」を手に入れた！")
  EndEventProcessing()
  0()
 EndIf()
 If(1,11,0,5,0)
  ShowMessageFace("mob_sanzoku_fc1",0,0,2,83)
  ShowMessage("【マグダ】")
  ShowMessage("さあ、本気出して行くよっ！")
  355("interrupt_skill(3294)")
  EndEventProcessing()
  0()
 EndIf()
 0()
EndIf()
If(1,100,0,580,0)
 If(1,11,0,1,0)
  ShowMessageFace("mob_ozyou_fc1",0,0,2,84)
  ShowMessage("【アレリア】")
  ShowMessage("音楽は心を和ませます……")
  ShowMessageFace("",0,0,2,85)
  ShowMessage("アレリアはバイオリンを演奏した……")
  ShowMessage("悪くはないが、誰も聞いていない！")
  EndEventProcessing()
  0()
 EndIf()
 If(1,11,0,2,0)
  ShowMessageFace("mob_ozyou_fc1",0,0,2,86)
  ShowMessage("【アレリア】")
  ShowMessage("たまには無礼講も良いですわね……")
  ShowMessageFace("",0,0,2,87)
  ShowMessage("アレリアは陽気に歌って踊っている……")
  EndEventProcessing()
  0()
 EndIf()
 If(1,11,0,3,0)
  ShowMessageFace("mob_ozyou_fc1",0,0,2,88)
  ShowMessage("【アレリア】")
  ShowMessage("皆さん、ファイトですわ……")
  355("interrupt_skill(3300)")
  EndEventProcessing()
  0()
 EndIf()
 If(1,11,0,4,0)
  ShowMessageFace("mob_ozyou_fc1",0,0,2,89)
  ShowMessage("【アレリア】")
  ShowMessage("これ、皆で食べて下さいませ……")
  ShowMessageFace("",0,0,2,90)
  ShowMessage("アレリアからの差し入れだ！")
  250(bytes(0x04,0x08,0x6f,0x3a,0x0c,0x52,0x50,0x47,0x3a,0x3a,0x53,0x45,0x08,0x3a,0x0a,0x40,0x6e,0x61,0x6d,0x65,0x49,0x22,0x0a,0x49,0x74,0x65,0x6d,0x31,0x06,0x3a,0x06,0x45,0x54,0x3a,0x0b,0x40,0x70,0x69,0x74,0x63,0x68,0x69,0x69,0x3a,0x0c,0x40,0x76,0x6f,0x6c,0x75,0x6d,0x65,0x69,0x55))
  ChangeInventory_Item(369,0,0,1)
  ShowMessageFace("",0,0,2,91)
  ShowMessage("「特上寿司」を手に入れた！")
  EndEventProcessing()
  0()
 EndIf()
 If(1,11,0,5,0)
  ShowMessageFace("mob_ozyou_fc1",0,0,2,92)
  ShowMessage("【アレリア】")
  ShowMessage("ふふっ……")
  355("interrupt_skill(3296)")
  EndEventProcessing()
  0()
 EndIf()
 0()
EndIf()
0()
